\relax 
\providecommand\hyper@newdestlabel[2]{}
\providecommand\HyperFirstAtBeginDocument{\AtBeginDocument}
\HyperFirstAtBeginDocument{\ifx\hyper@anchor\@undefined
\global\let\oldcontentsline\contentsline
\gdef\contentsline#1#2#3#4{\oldcontentsline{#1}{#2}{#3}}
\global\let\oldnewlabel\newlabel
\gdef\newlabel#1#2{\newlabelxx{#1}#2}
\gdef\newlabelxx#1#2#3#4#5#6{\oldnewlabel{#1}{{#2}{#3}}}
\AtEndDocument{\ifx\hyper@anchor\@undefined
\let\contentsline\oldcontentsline
\let\newlabel\oldnewlabel
\fi}
\fi}
\global\let\hyper@last\relax 
\gdef\HyperFirstAtBeginDocument#1{#1}
\providecommand\HyField@AuxAddToFields[1]{}
\providecommand\HyField@AuxAddToCoFields[2]{}
\@writefile{toc}{\beamer@endinputifotherversion {3.36pt}}
\@writefile{nav}{\beamer@endinputifotherversion {3.36pt}}
\@writefile{nav}{\headcommand {\slideentry {0}{0}{1}{1/1}{}{0}}}
\@writefile{nav}{\headcommand {\beamer@framepages {1}{1}}}
\@writefile{nav}{\headcommand {\slideentry {0}{0}{2}{2/6}{}{0}}}
\@writefile{nav}{\headcommand {\beamer@framepages {2}{6}}}
\@writefile{toc}{\beamer@sectionintoc {1}{Motivaci\IeC {\'o}n}{7}{0}{1}}
\@writefile{nav}{\headcommand {\sectionentry {1}{Motivaci\IeC {\'o}n}{7}{Motivaci\IeC {\'o}n}{0}}}
\@writefile{nav}{\headcommand {\beamer@sectionpages {1}{6}}}
\@writefile{nav}{\headcommand {\beamer@subsectionpages {1}{6}}}
\@writefile{nav}{\headcommand {\slideentry {1}{0}{1}{7/7}{}{0}}}
\@writefile{nav}{\headcommand {\beamer@framepages {7}{7}}}
\@writefile{toc}{\beamer@subsectionintoc {1}{1}{Estado actual}{8}{0}{1}}
\@writefile{nav}{\headcommand {\beamer@subsectionentry {0}{1}{1}{8}{Estado actual}}\headcommand {\beamer@subsectionpages {7}{7}}}
\@writefile{nav}{\headcommand {\slideentry {1}{1}{1}{8/8}{Estado actual}{0}}}
\@writefile{nav}{\headcommand {\beamer@framepages {8}{8}}}
\@writefile{toc}{\beamer@sectionintoc {2}{\IeC {\textquestiondown }C\IeC {\'o}mo podemos ayudar?}{9}{0}{2}}
\@writefile{nav}{\headcommand {\sectionentry {2}{\IeC {\textquestiondown }C\IeC {\'o}mo podemos ayudar?}{9}{\IeC {\textquestiondown }C\IeC {\'o}mo podemos ayudar?}{0}}}
\@writefile{nav}{\headcommand {\beamer@sectionpages {7}{8}}}
\@writefile{nav}{\headcommand {\beamer@subsectionpages {8}{8}}}
\@writefile{nav}{\headcommand {\slideentry {2}{0}{1}{9/9}{}{0}}}
\@writefile{nav}{\headcommand {\beamer@framepages {9}{9}}}
\@writefile{toc}{\beamer@subsectionintoc {2}{1}{\IeC {\textquestiondown }Que hemos hecho?}{10}{0}{2}}
\@writefile{nav}{\headcommand {\beamer@subsectionentry {0}{2}{1}{10}{\IeC {\textquestiondown }Que hemos hecho?}}\headcommand {\beamer@subsectionpages {9}{9}}}
\@writefile{nav}{\headcommand {\slideentry {2}{1}{1}{10/10}{\IeC {\textquestiondown }Que hemos hecho?}{0}}}
\@writefile{nav}{\headcommand {\beamer@framepages {10}{10}}}
\@writefile{nav}{\headcommand {\slideentry {2}{1}{2}{11/11}{\IeC {\textquestiondown }Que hemos hecho?}{0}}}
\@writefile{nav}{\headcommand {\beamer@framepages {11}{11}}}
\@writefile{nav}{\headcommand {\slideentry {2}{1}{3}{12/12}{\IeC {\textquestiondown }Que hemos hecho?}{0}}}
\@writefile{nav}{\headcommand {\beamer@framepages {12}{12}}}
\@writefile{nav}{\headcommand {\slideentry {2}{1}{4}{13/13}{\IeC {\textquestiondown }Que hemos hecho?}{0}}}
\@writefile{nav}{\headcommand {\beamer@framepages {13}{13}}}
\@writefile{toc}{\beamer@sectionintoc {3}{Expectativas}{14}{0}{3}}
\@writefile{nav}{\headcommand {\sectionentry {3}{Expectativas}{14}{Expectativas}{0}}}
\@writefile{nav}{\headcommand {\beamer@sectionpages {9}{13}}}
\@writefile{nav}{\headcommand {\beamer@subsectionpages {10}{13}}}
\@writefile{toc}{\beamer@subsectionintoc {3}{1}{Objetivos}{14}{0}{3}}
\@writefile{nav}{\headcommand {\beamer@subsectionentry {0}{3}{1}{14}{Objetivos}}\headcommand {\beamer@subsectionpages {14}{13}}}
\@writefile{nav}{\headcommand {\slideentry {3}{1}{1}{14/14}{Objetivos}{0}}}
\@writefile{nav}{\headcommand {\beamer@framepages {14}{14}}}
\@writefile{nav}{\headcommand {\slideentry {3}{1}{2}{15/15}{Objetivos}{0}}}
\@writefile{nav}{\headcommand {\beamer@framepages {15}{15}}}
\@writefile{toc}{\beamer@sectionintoc {4}{\IeC {\textquestiondown }Por qu\IeC {\'e} el JBB?}{16}{0}{4}}
\@writefile{nav}{\headcommand {\sectionentry {4}{\IeC {\textquestiondown }Por qu\IeC {\'e} el JBB?}{16}{\IeC {\textquestiondown }Por qu\IeC {\'e} el JBB?}{0}}}
\@writefile{nav}{\headcommand {\beamer@sectionpages {14}{15}}}
\@writefile{nav}{\headcommand {\beamer@subsectionpages {14}{15}}}
\@writefile{nav}{\headcommand {\slideentry {4}{0}{1}{16/16}{}{0}}}
\@writefile{nav}{\headcommand {\beamer@framepages {16}{16}}}
\@writefile{toc}{\beamer@sectionintoc {5}{Solicitudes}{17}{0}{5}}
\@writefile{nav}{\headcommand {\sectionentry {5}{Solicitudes}{17}{Solicitudes}{0}}}
\@writefile{nav}{\headcommand {\beamer@sectionpages {16}{16}}}
\@writefile{nav}{\headcommand {\beamer@subsectionpages {16}{16}}}
\@writefile{nav}{\headcommand {\slideentry {5}{0}{1}{17/17}{}{0}}}
\@writefile{nav}{\headcommand {\beamer@framepages {17}{17}}}
\@writefile{nav}{\headcommand {\beamer@partpages {1}{17}}}
\@writefile{nav}{\headcommand {\beamer@subsectionpages {17}{17}}}
\@writefile{nav}{\headcommand {\beamer@sectionpages {17}{17}}}
\@writefile{nav}{\headcommand {\beamer@documentpages {17}}}
\@writefile{nav}{\headcommand {\def \inserttotalframenumber {13}}}
