\beamer@endinputifotherversion {3.36pt}
\beamer@sectionintoc {1}{Motivaci\IeC {\'o}n}{7}{0}{1}
\beamer@subsectionintoc {1}{1}{Estado actual}{8}{0}{1}
\beamer@sectionintoc {2}{\IeC {\textquestiondown }C\IeC {\'o}mo podemos ayudar?}{9}{0}{2}
\beamer@subsectionintoc {2}{1}{\IeC {\textquestiondown }Que hemos hecho?}{10}{0}{2}
\beamer@sectionintoc {3}{Expectativas}{14}{0}{3}
\beamer@subsectionintoc {3}{1}{Objetivos}{14}{0}{3}
\beamer@sectionintoc {4}{\IeC {\textquestiondown }Por qu\IeC {\'e} el JBB?}{16}{0}{4}
\beamer@sectionintoc {5}{Solicitudes}{17}{0}{5}
